Criando modelo para predição de nota em jogos de tabuleiros modernos
…
Limpando dados

Agora serão investigados os dados faltantes na base de dados.

games_year <- df_bg |> 
  dplyr::filter(year >= 1995) |> 
  # dplyr::pull(year) |> 
  nrow()

## Apenas uma observação sem ano, será removida

df_bg |> 
  dplyr::filter(is.na(own_users))

# A tibble: 23 × 11
       id name       year min_p max_p playtime min_age users_rat compl own_users
    <dbl> <chr>     <dbl> <dbl> <dbl>    <dbl>   <dbl>     <dbl> <dbl>     <dbl>
 1 202755 Guildhal…  2016     2     4       45      10       565  2           NA
 2 196305 Guildhal…  2016     2     4       45      10       360  2.14        NA
 3 196306 Guildhal…  2016     2     4       45      10       336  2.13        NA
 4    289 Chariot …  1999     3     4      360      12       221  2.81        NA
 5   6813 Operatio…  1985     2     2      120      12        94  3.04        NA
 6    139 Hoax       1981     3    12       45      10       216  1.38        NA
 7 266756 Devil Bo…  2021     1     1       60      14        49  2.83        NA
 8     NA Ace of A…  1990     2     2       20      10       110  1.88        NA
 9     NA Die Erbe…  1999     3     8       45      12       137  2.15        NA
10     NA Rommel i…  1986     2     2        0      12        53  3.63        NA
# ℹ 13 more rows
# ℹ 1 more variable: score <dbl>
…
